{
    "expect_event": [
        {"$schema":"http://json-schema.org/draft-07/schema#",
         "type":"object",
         "properties":{
            "event":{"type":"string","enum":["video_over"]},
            "type":{"type":"string","enum":["1"]},
            "params":{"type:":"object", "properties":{
                "group_id":{"type":"string","pattern":"^[0-9]*$"},
                "content_id":{"type":"string","pattern":"^[0-9]*$"},
                "item_id":{"type":"string","pattern":"^[0-9]*$"},
                "is_preview":{"type":"string","enum":["1"]},
                "page_type":{"type":"string","enum":["article_detail"]},
                "enter_from":{"type":"string","enum":["click_category"]},
                "duration":{"type":"string","pattern":"^[0-9]*$","minLength":0,"maxLength":5},
                "is_background":{"type":"string","enum":["0"]},
                "user_perm_type":{"type":"string","enum":["has_purchased"]},
                "item_type":{"type":"string","enum":["5"]},
                "content_type":{"type":"string","enum":["album"]},
                "percent":{"type":"string","pattern":"^[0-9]*$"}
            }
          }
         },
        "required":["event","params"]
         }],
    "case": "点击付费参加挑战",
    "status": "ok",
    "platform": 2,
    "jsonschema": 1,
    "wait_time": 5
}