{
    "expect_event": [
        {"$schema":"http://json-schema.org/draft-07/schema#",
         "type":"object",
         "properties":{
            "event":{"type":"string","enum":["enter_vip_purchase"]},
            "params":{"type:":"object", "properties":{
                "entrance":{"type":"string","enum":["content_detail"]},
                "content_id":{"type":"string","pattern":"^[0-9]*$"}
            }
          }
         },
        "required":["event","params"]
         }],
    "case": "tab跳转挑战",
    "status": "ok",
    "platform": 2,
    "jsonschema": 1,
    "wait_time": 5
}