{
    "expect_event": [
        {"$schema":"http://json-schema.org/draft-07/schema#",
         "type":"object",
         "properties":{
            "event":{"type":"string","enum":["video_over"]},
            "type":{"type":"string","enum":["1"]},
            "params":{"type:":"object", "properties":{
                "group_id":{"type":"string","pattern":"^[0-9]*$"},
                "item_id":{"type":"string","pattern":"^[0-9]*$"},
                "is_preview":{"type":"string","enum":["1"]},
                "enter_from":{"type":"string","enum":["click_category"]},
                "duration":{"type":"string","pattern":"^[0-9]*$","minLength":0,"maxLength":5},
                "is_background":{"type":"string","enum":["0"]},
                "percent":{"type":"string","pattern":"^[0-9]*$"}
            }
          }
         },
        "required":["event","params"]
         }],
    "case": "点击付费参加挑战",
    "status": "ok",
    "platform": 2,
    "jsonschema": 1,
    "wait_time": 5
}