{
    "expect_event": [
        {"$schema":"http://json-schema.org/draft-07/schema#",
         "type":"object",
         "properties":{
            "event":{"type":"string","enum":["video_play"]},
            "type":{"type":"string","enum":["1"]},
            "params":{"type:":"object", "properties":{
                "group_id":{"type":"string","pattern":"^[0-9]*$"},
                "content_id":{"type":"string","pattern":"^[0-9]*$"},
                "item_id":{"type":"string","pattern":"^[0-9]*$"},
                "page_type":{"type":"string","enum":["article_detail"]},
                "enter_from":{"type":"string","enum":["click_category"]}
            }
          }
         },
        "required":["event","params"]
         }],
    "case": "点击付费参加挑战",
    "status": "ok",
    "platform": 2,
    "jsonschema": 1,
    "wait_time": 5
}