{
    "expect_event": [
        {"$schema":"http://json-schema.org/draft-07/schema#",
         "type":"object",
         "properties":{
            "event":{"type":"string","enum":["go_detail"]},
            "params":{"type:":"object", "properties":{
                "group_id":{"type":"string","pattern":"^[0-9]*$"},
                "page_type":{"type":"string","enum":["article_detail"]}
            }
          }
         },
        "required":["event","params"]
         }],
    "case": "有效搜索进入第一个结果详情",
    "status": "ok",
    "platform": 2,
    "jsonschema": 1,
    "wait_time": 5
}