{
    "expect_event": [
        {"$schema":"http://json-schema.org/draft-07/schema#",
         "type":"object",
         "properties":{
            "event":{"type":"string","enum":["enter_launch"]},
            "type":{"type":"string","enum":["1"]},
            "params":{"type:":"object"}
         },
        "required":["event","params"]
         }],
    "case": "event首页滑动进入频道",
    "status": "ok",
    "platform": 2,
    "jsonschema": 1,
    "wait_time": 5
}