{
    "expect_event": [
        {"$schema":"http://json-schema.org/draft-07/schema#",
         "type":"object",
         "properties":{
            "event":{"type":"string","enum":["enter_tab"]},
            "params":{"type:":"object", "properties":{
                "tab_name":{"type":"string","enum":["challenge"]},
                "last_tab_name":{"type":"string","enum":["purchased"]}
            }
          }
         },
        "required":["event","params"]
         }],
    "case": "准备工作",
    "status": "ok",
    "platform": 2,
    "jsonschema": 1,
    "wait_time": 5
}