{
    "expect_event": [{"$schema":"http://json-schema.org/draft-04/schema#","type":"object",
                     "properties":{"nt":{"type":"integer","enum":[4]},
                                   "category":{"type":"string","enum":["umeng"]},
                                   "tag":{"type":"string","enum":["comment_first_ad"]},
                                   "label":{"type":"string","enum":["click"]}},
                                   "is_ad_event":{"type":"integer","enum":[1]},
                                   "value":{"type":"string"},
                                   "log_extra":{"type":"string"},
                     "required":["category","tag","label","is_ad_event","nt","value","log_extra"]},
                      {"$schema":"http://json-schema.org/draft-04/schema#","type":"object",
                     "properties":{"nt":{"type":"integer","enum":[4]},
                                   "category":{"type":"string","enum":["umeng"]},
                                   "tag":{"type":"string","enum":["comment_first_ad"]},
                                   "label":{"type":"string","enum":["click_title"]}},
                                   "is_ad_event":{"type":"integer","enum":[1]},
                                   "value":{"type":"string"},
                                   "log_extra":{"type":"string"},
                     "required":["category","tag","label","is_ad_event","nt","value","log_extra"]},
                      {"$schema":"http://json-schema.org/draft-04/schema#","type":"object",
                     "properties":{"nt":{"type":"integer","enum":[4]},
                                   "category":{"type":"string","enum":["umeng"]},
                                   "tag":{"type":"string","enum":["draw_ad"]},
                                   "label":{"type":"string","enum":["open_url_h5"]}},
                                   "is_ad_event":{"type":"integer","enum":[1]},
                                   "value":{"type":"string"},
                                   "log_extra":{"type":"string"},
                     "required":["category","tag","label","is_ad_event","nt","value","log_extra"]}],
    "case": "feed广告点击头像吊起app",
    "status": "ok",
    "platform": 2,
    "jsonschema": 1,
    "wait_time": 5
}