{
    "expect_event": [{"$schema":"http://json-schema.org/draft-04/schema#","type":"object",
                     "properties":{"category":{"type":"string","enum":["umeng"]},
                                   "nt":{"type":"integer","enum":[4]},
                                   "tag":{"type":"string","enum":["homepage_ad"]},
                                   "label":{"type":"string","enum":["click"]}},
                                    "is_ad_event":{"type":"integer","enum":[1]},
                                   "value":{"type":"string"},
                                   "log_extra":{"type":"string"},
                     "required":["category","tag","label","is_ad_event","nt","value","log_extra"]},
                     {"$schema":"http://json-schema.org/draft-04/schema#","type":"object",
                     "properties":{"category":{"type":"string","enum":["umeng"]},
                                   "nt":{"type":"integer","enum":[4]},
                                   "tag":{"type":"string","enum":["homepage_ad"]},
                                   "label":{"type":"string","enum":["click_form"]}},
                                    "is_ad_event":{"type":"integer","enum":[1]},
                                   "value":{"type":"string"},
                                   "log_extra":{"type":"string"},
                     "required":["category","tag","label","is_ad_event","nt","value","log_extra"]}],
    "case": "feed广告蓝条点击表单",
    "status": "ok",
    "platform": 2,
    "jsonschema": 1,
    "wait_time": 5
}