{
  "douyin":{
    "iOS": {
      "platformName": "iOS",
      "platformVersion": "10.3.3",
      "deviceName":    "iPhone 6",
      "app": "",
      "appName": "douyin",
      "hub": "http://127.0.0.1:%s/wd/hub",
      "automationName": "XCUITest",
      "newCommandTimeout":300,
      "noReset":  true,
      "preventWDAAttachments": true,
      "clearSystemFiles": true,
      "usePrebuiltWDA": true,
      "useJSONSource": true,
      "showIOSLog":false,
      "bundleId": "com.ss.android.ugc.aweme",
      "udid":"1e2af32a1b26b183807a7c71aed3dc845d63a084",
      "processArguments":{"args": ["-TTTrackRemoteServerCacheKey", "http://10.2.215.59:9540"]},
      "deviceInfo": {"ip": "10.2.192.94","did":51909725573}
    },
    "Android": {
      "platformName":	"Android",
      "platformVersion":	"7.0",
      "deviceName":	"meizu",
      "app":			"",
      "hub":			"http://127.0.0.1:%s/wd/hub",
      "appPackage":   "com.ss.android.ugc.aweme",
      "appActivity":      "com.ss.android.ugc.aweme.main.MainActivity",
      "automationName":   "Appium",
      "newCommandTimeout":300,
      "udid":"LE67A06220037170",
      "noReset":  true
    },
    "Server": {
      "platformName": "iOS",
      "platformVersion": "11.2.2",
      "deviceName":    "iPhone 8",
      "app": "",
      "hub": "http://127.0.0.1:%s/wd/hub",
      "automationName": "XCUITest",
      "newCommandTimeout":300,
      "noReset":  false,
      "showIOSLog":false,
      "bundleId": "com.ss.android.ugc.aweme",
      "udid":"b516cd139db16c024ccce387e4541ae5a78bf368",
      "app_name":"NewsInHouse.app.ipa"
    }
  }
}