{
    "expect_event": {"$schema":"http://json-schema.org/draft-04/schema#","type":"object","properties":{
        "nt":{"type":"integer","enum":[4]},"category":{"type":"string","enum":["umeng"]},
        "tag":{"type":"string","enum":["go_detail"]},
        "has_zz_comment":{"enum":["0",0]},
        "aggr_type":{"enum":["1",1]},"label":{"type":"string","enum":["click_video"]}},
                     "required":["category","tag","item_id","value","label"]},
    "case": "进入视频详情页",
    "status": "ok",
    "platform": 2,
    "jsonschema": 1,
    "wait_time": 5
}