{
  "expect_event": {
    "$schema": "http://json-schema.org/draft-04/schema#",
    "required": [
      "params"
    ],
    "type": "object",
    "properties": {
      "params": {
        "required": [
          "category_name",
          "demand_id",
          "enter_from",
          "enter_type",
          "list_entrance",
          "stay_time"
        ],
        "type": "object",
        "properties": {
          "stay_time": {
            "type": "integer",
            "minimum":5000,
            "maximum":60000
          },
          "enter_from": {
            "type": "string",
            "enum": ["click_category"]
          },
          "demand_id": {
            "type": "string"
          },
          "enter_type": {
            "type": "string",
            "enum": ["click"]
          },
          "list_entrance": {
            "type": "string",
            "enum": ["main_tab"]
          },
          "category_name": {
            "type": "string",
            "enum": ["hotsoon_video"]
          }
        }
      }
    }
  }
}

