{
    "expect_event": {"$schema":"http://json-schema.org/draft-04/schema#","type":"object","properties":
        {"category_id":{"type":"string"},"concern_id":{"type":"string","enum":["6286225228934679042"]},
         "refer":{"enum":["1",1]},"nt":{"type":"string","enum":["4"]},
         "category":{"type":"string","enum":["umeng"]},"tag":{"type":"string","enum":["new_tab"]},
         "label":{"type":"string","enum":["enter_flip"]}},
                     "required":["category","tag","label"]},
    "case": "滑动进入feed",
    "status": "ok",
    "platform": 2,
    "jsonschema": 1,
    "wait_time": 5
}