{
    "expect_event": {
        "$schema": "http://json-schema.org/draft-04/schema#",
        "properties": {
            "category": {"enum": ["umeng"], "type": "string"},
            "ctype": {"type": "string"},
            "follow": {"type": "string"},
            "gtype": {"type": "string"},
            "label": {"enum": ["comment_click"], "type": "string"},
            "tag": {"enum": ["cell"], "type": "string"},
            "value": {"type": "string"},
            "source": {"type": "string", "enum": ["weitoutiao"]}
        },
        "required": ["category", "ctype", "label", "tag", "value", "gtype", "source"],
        "type": "object"
    },
    "case": "点击评论cell",
    "status": "ok",
    "platform": 2,
    "jsonschema": 1,
    "wait_time": 5
}