{
    "expect_event": [
        {
            "$schema": "http://json-schema.org/draft-04/schema#",
            "type": "object",
            "properties": {
                "category": {
                    "type": "string",
                    "enum": [
                        "umeng"
                    ]
                },
                "tag": {
                    "type": "string",
                    "enum": [
                        "go_detail"
                    ]
                },
                "label": {
                    "type": "string",
                    "enum": [
                        "click_related"
                    ]
                },
                "nt": {
                    "enum": [
                        4,
                        "4"
                    ]
                },
                "aggr_type": {
                    "enum": [
                        "1",
                        1
                    ]
                }
            },
            "required": [
                "category",
                "tag",
                "label",
                "value",
                "item_id",
                "from_gid"
            ]
        },
        {
            "$schema": "http://json-schema.org/draft-04/schema#",
            "type": "object",
            "properties": {
                "params": {
                    "enter_from": {
                        "type": "string",
                        "enum": [
                            "click_related"
                        ]
                    },
                    "category_name": {
                        "type": "string",
                        "enum": [
                            "related"
                        ]
                    },
                    "aggr_type": {
                        "enum": [
                            "1",
                            1
                        ]
                    },
                    "log_pb": {
                        "type": "object",
                        "from_gid": {
                            "type": "string"
                        }
                    },
                    "required": [
                        "item_id",
                        "group_id",
                        "aggr_type",
                        "category_name",
                        "enter_from",
                        "log_pb"
                    ]
                },
                "event": {
                    "type": "string",
                    "enum": [
                        "go_detail"
                    ]
                }
            }
        }
    ]
}